(EX) Electronic medical record — DATA_ENG 300 Data Engineering Studio
…
# admission table at a glance
conn.sql(
    """
    SELECT * FROM ADMISSIONS;
    """
)

┌────────┬────────────┬─────────┬───┬──────────────────────┬──────────────────────┬──────────────────────┐
│ row_id │ subject_id │ hadm_id │ … │      diagnosis       │ hospital_expire_flag │ has_chartevents_data │
│ int32  │   int32    │  int32  │   │       varchar        │        int32         │        int32         │
├────────┼────────────┼─────────┼───┼──────────────────────┼──────────────────────┼──────────────────────┤
│  12258 │      10006 │  142345 │ … │ SEPSIS               │                    0 │                    1 │
│  12263 │      10011 │  105331 │ … │ HEPATITIS B          │                    1 │                    1 │
│  12265 │      10013 │  165520 │ … │ SEPSIS               │                    1 │                    1 │
│  12269 │      10017 │  199207 │ … │ HUMERAL FRACTURE     │                    0 │                    1 │
│  12270 │      10019 │  177759 │ … │ ALCOHOLIC HEPATITIS  │                    1 │                    1 │
│  12277 │      10026 │  103770 │ … │ STROKE/TIA           │                    0 │                    1 │
│  12278 │      10027 │  199395 │ … │  MITRAL REGURGITAT…  │                    0 │                    1 │
│  12280 │      10029 │  132349 │ … │ SYNCOPE;TELEMETRY    │                    0 │                    1 │
│  12282 │      10032 │  140372 │ … │ RIGHT HUMEROUS FRA…  │                    0 │                    1 │
│  12283 │      10033 │  157235 │ … │ RENAL FAILIURE-SYN…  │                    0 │                    1 │
│    ·   │        ·   │     ·   │ · │       ·              │                    · │                    · │
│    ·   │        ·   │     ·   │ · │       ·              │                    · │                    · │
│    ·   │        ·   │     ·   │ · │       ·              │                    · │                    · │
│  40994 │      43881 │  167021 │ … │ UPPER GI BLEED       │                    0 │                    1 │
│  40998 │      43909 │  167612 │ … │ PNEUMONIA;TELEMETRY  │                    1 │                    1 │
│  41005 │      43927 │  110958 │ … │ CORONARY ARTERY DI…  │                    0 │                    1 │
│  41053 │      44083 │  125157 │ … │ ESOPHAGEAL CA/SDA    │                    0 │                    1 │
│  41054 │      44083 │  131048 │ … │ SHORTNESS OF BREATH  │                    0 │                    1 │
│  41055 │      44083 │  198330 │ … │ PERICARDIAL EFFUSION │                    0 │                    1 │
│  41070 │      44154 │  174245 │ … │ ALTERED MENTAL STA…  │                    1 │                    1 │
│  41087 │      44212 │  163189 │ … │ ACUTE RESPIRATORY …  │                    0 │                    1 │
│  41090 │      44222 │  192189 │ … │ BRADYCARDIA          │                    0 │                    1 │
│  41092 │      44228 │  103379 │ … │ CHOLANGITIS          │                    0 │                    1 │
├────────┴────────────┴─────────┴───┴──────────────────────┴──────────────────────┴──────────────────────┤
│ 129 rows (20 shown)                                                               19 columns (6 shown) │
└────────────────────────────────────────────────────────────────────────────────────────────────────────┘
…
Derivative queries#

# calculate the age of each patient at the time of admission
# cast(patients.dob as date) allows for addition and subtraction of dates
conn.sql(
    """
    SELECT patients.subject_id, round((cast(admissions.admittime as date) - 
        cast(patients.dob as date))/365) as age1, 
    FROM patients
    INNER JOIN admissions ON patients.subject_id = admissions.subject_id;
    """
)

┌────────────┬────────┐
│ subject_id │  age1  │
│   int32    │ double │
├────────────┼────────┤
│      10006 │   71.0 │
│      10011 │   36.0 │
│      10013 │   87.0 │
│      10017 │   74.0 │
│      10019 │   49.0 │
│      10026 │  300.0 │
│      10027 │   83.0 │
│      10029 │   79.0 │
│      10032 │   88.0 │
│      10033 │   82.0 │
│        ·   │     ·  │
│        ·   │     ·  │
│        ·   │     ·  │
│      43881 │   54.0 │
│      43909 │   79.0 │
│      43927 │   72.0 │
│      44083 │   55.0 │
│      44083 │   55.0 │
│      44083 │   55.0 │
│      44154 │  300.0 │
│      44212 │   45.0 │
│      44222 │   73.0 │
│      44228 │   58.0 │
├────────────┴────────┤
│ 129 rows (20 shown) │
└─────────────────────┘
…
Additional reference queries#

# 
conn.sql(
    """
    SELECT p.subject_id, p.dob, a.hadm_id,
        a.admittime, p.expire_flag
    FROM admissions a
    INNER JOIN patients p
    ON p.subject_id = a.subject_id
    ORDER BY admittime;
    """
)

┌────────────┬─────────────────────┬─────────┬─────────────────────┬─────────────┐
│ subject_id │         dob         │ hadm_id │      admittime      │ expire_flag │
│   int32    │       varchar       │  int32  │       varchar       │    int32    │
├────────────┼─────────────────────┼─────────┼─────────────────────┼─────────────┤
│      42231 │ 2016-12-05 00:00:00 │  171878 │ 2102-08-29 07:15:00 │           1 │
│      43881 │ 2051-03-24 00:00:00 │  172454 │ 2104-09-24 17:31:00 │           1 │
│      43881 │ 2051-03-24 00:00:00 │  167021 │ 2104-10-24 09:44:00 │           1 │
│      10102 │ 2035-04-13 00:00:00 │  164869 │ 2105-05-29 18:18:00 │           1 │
│      43879 │ 2051-07-25 00:00:00 │  158100 │ 2106-08-30 15:43:00 │           1 │
│      10088 │ 2029-07-09 00:00:00 │  169938 │ 2107-01-04 11:59:00 │           1 │
│      10061 │ 2031-05-19 00:00:00 │  145203 │ 2107-01-16 11:33:00 │           1 │
│      10088 │ 2029-07-09 00:00:00 │  168233 │ 2107-01-29 04:00:00 │           1 │
│      10076 │ 2038-05-10 00:00:00 │  198503 │ 2107-03-21 21:16:00 │           1 │
│      10088 │ 2029-07-09 00:00:00 │  149044 │ 2107-05-12 18:00:00 │           1 │
│        ·   │          ·          │     ·   │          ·          │           · │
│        ·   │          ·          │     ·   │          ·          │           · │
│        ·   │          ·          │     ·   │          ·          │           · │
│      41976 │ 2136-07-28 00:00:00 │  130681 │ 2200-10-29 20:46:00 │           1 │
│      41976 │ 2136-07-28 00:00:00 │  180546 │ 2201-05-12 10:49:00 │           1 │
│      41976 │ 2136-07-28 00:00:00 │  174863 │ 2201-08-10 23:00:00 │           1 │
│      41976 │ 2136-07-28 00:00:00 │  125013 │ 2201-09-28 16:47:00 │           1 │
│      41976 │ 2136-07-28 00:00:00 │  155297 │ 2201-11-16 23:00:00 │           1 │
│      41976 │ 2136-07-28 00:00:00 │  179418 │ 2201-12-31 19:19:00 │           1 │
│      41976 │ 2136-07-28 00:00:00 │  151798 │ 2202-02-15 19:01:00 │           1 │
│      41976 │ 2136-07-28 00:00:00 │  145024 │ 2202-05-01 22:00:00 │           1 │
│      41976 │ 2136-07-28 00:00:00 │  149469 │ 2202-09-16 21:56:00 │           1 │
│      41976 │ 2136-07-28 00:00:00 │  153826 │ 2202-10-03 01:45:00 │           1 │
├────────────┴─────────────────────┴─────────┴─────────────────────┴─────────────┤
│ 129 rows (20 shown)                                                  5 columns │
└────────────────────────────────────────────────────────────────────────────────┘

 # 
conn.sql(
    """
    SELECT p.subject_id, p.dob, a.hadm_id,
        a.admittime, p.expire_flag,
        MIN (a.admittime) OVER (PARTITION BY p.subject_id) AS first_admittime
    FROM admissions a
    INNER JOIN patients p
    ON p.subject_id = a.subject_id
    ORDER BY a.hadm_id, p.subject_id;
    """
)

┌────────────┬─────────────────────┬─────────┬─────────────────────┬─────────────┬─────────────────────┐
│ subject_id │         dob         │ hadm_id │      admittime      │ expire_flag │   first_admittime   │
│   int32    │       varchar       │  int32  │       varchar       │    int32    │       varchar       │
├────────────┼─────────────────────┼─────────┼─────────────────────┼─────────────┼─────────────────────┤
│      10056 │ 2046-02-27 00:00:00 │  100375 │ 2129-05-02 00:12:00 │           1 │ 2129-05-02 00:12:00 │
│      42430 │ 2061-12-10 00:00:00 │  100969 │ 2142-11-26 21:20:00 │           1 │ 2142-11-26 21:20:00 │
│      41914 │ 2090-11-16 00:00:00 │  101361 │ 2145-12-01 18:13:00 │           1 │ 2145-12-01 18:13:00 │
│      42135 │ 2083-09-20 00:00:00 │  102203 │ 2127-07-23 15:21:00 │           1 │ 2127-07-23 15:21:00 │
│      44228 │ 2112-10-22 00:00:00 │  103379 │ 2170-12-15 03:14:00 │           1 │ 2170-12-15 03:14:00 │
│      10026 │ 1895-05-17 00:00:00 │  103770 │ 2195-05-17 07:39:00 │           1 │ 2195-05-17 07:39:00 │
│      40612 │ 2073-08-13 00:00:00 │  104697 │ 2159-11-17 03:28:00 │           1 │ 2159-11-17 03:28:00 │
│      10117 │ 2072-05-05 00:00:00 │  105150 │ 2138-11-09 18:08:00 │           1 │ 2138-06-05 17:23:00 │
│      10011 │ 2090-06-05 00:00:00 │  105331 │ 2126-08-14 22:32:00 │           1 │ 2126-08-14 22:32:00 │
│      41983 │ 1851-09-12 00:00:00 │  107689 │ 2151-09-12 17:04:00 │           1 │ 2151-09-12 17:04:00 │
│        ·   │          ·          │     ·   │          ·          │           · │          ·          │
│        ·   │          ·          │     ·   │          ·          │           · │          ·          │
│        ·   │          ·          │     ·   │          ·          │           · │          ·          │
│      10089 │ 2046-04-18 00:00:00 │  190301 │ 2132-08-05 18:48:00 │           1 │ 2132-08-05 18:48:00 │
│      44222 │ 2107-06-27 00:00:00 │  192189 │ 2180-07-19 06:55:00 │           1 │ 2180-07-19 06:55:00 │
│      10120 │ 2088-05-05 00:00:00 │  193924 │ 2115-05-12 14:52:00 │           1 │ 2115-05-12 14:52:00 │
│      42281 │ 2051-03-23 00:00:00 │  195911 │ 2119-10-17 05:58:00 │           1 │ 2119-10-17 05:58:00 │
│      10132 │ 2058-04-23 00:00:00 │  197611 │ 2123-08-23 20:00:00 │           1 │ 2123-08-23 20:00:00 │
│      44083 │ 2057-11-15 00:00:00 │  198330 │ 2112-05-28 15:45:00 │           1 │ 2112-05-04 08:00:00 │
│      40177 │ 2082-06-27 00:00:00 │  198480 │ 2169-05-06 23:16:00 │           1 │ 2169-05-06 23:16:00 │
│      10076 │ 2038-05-10 00:00:00 │  198503 │ 2107-03-21 21:16:00 │           1 │ 2107-03-21 21:16:00 │
│      10017 │ 2075-09-21 00:00:00 │  199207 │ 2149-05-26 17:19:00 │           1 │ 2149-05-26 17:19:00 │
│      10027 │ 2108-01-15 00:00:00 │  199395 │ 2190-07-13 07:15:00 │           1 │ 2190-07-13 07:15:00 │
├────────────┴─────────────────────┴─────────┴─────────────────────┴─────────────┴─────────────────────┤
│ 129 rows (20 shown)                                                                        6 columns │
└──────────────────────────────────────────────────────────────────────────────────────────────────────┘
…
